tb_mips_cpu.vcd
$date
	Sun Dec 24 18:09:00 2023
$end
$version
	Icarus Verilog
$end
$timescale
	1ps
$end
$scope module testbench $end
$var reg 1 ! clock $end
$var reg 1 " reset $end
$scope module mipsCPU $end
$var wire 1 ! clock $end
$var wire 1 " reset $end
$var wire 32 # inst [31:0] $end
$var wire 1 $ Zero $end
$var wire 1 % WriteReg $end
$var wire 1 & WriteMem $end
$var wire 32 ' Shifted_Addr [31:0] $end
$var wire 32 ( ShiftOut [31:0] $end
$var wire 1 ) Shift $end
$var wire 1 * SEXT $end
$var wire 32 + Result [31:0] $end
$var wire 1 , REGRT $end
$var wire 32 - Q2 [31:0] $end
$var wire 32 . Q1 [31:0] $end
$var wire 32 / PCout [31:0] $end
$var wire 32 0 PCin [31:0] $end
$var wire 5 1 ND [4:0] $end
$var wire 5 2 N2 [4:0] $end
$var wire 5 3 N1 [4:0] $end
$var wire 32 4 Mux6_Out [31:0] $end
$var wire 32 5 Mux5_Out [31:0] $end
$var wire 32 6 Mux4_Out [31:0] $end
$var wire 32 7 MemData [31:0] $end
$var wire 1 8 Mem2Reg $end
$var wire 1 9 Jump $end
$var wire 32 : Extended32 [31:0] $end
$var wire 1 ; Branch $end
$var wire 32 < ALU_B [31:0] $end
$var wire 32 = ALU_A [31:0] $end
$var wire 1 > ALUImm $end
$var wire 4 ? ALUC [3:0] $end
$var wire 32 @ ADD_0 [31:0] $end
$scope module ALU_0 $end
$var wire 1 $ Zero $end
$var wire 32 A B [31:0] $end
$var wire 4 B ALUC [3:0] $end
$var wire 32 C A [31:0] $end
$var reg 32 D Result [31:0] $end
$upscope $end
$scope module controlUnit_0 $end
$var wire 6 E Func [5:0] $end
$var wire 6 F OP [5:0] $end
$var wire 1 $ Zero $end
$var reg 4 G ALUC [3:0] $end
$var reg 1 > ALUImm $end
$var reg 1 ; Branch $end
$var reg 1 9 Jump $end
$var reg 1 8 Mem2Reg $end
$var reg 1 , REGRT $end
$var reg 1 * SEXT $end
$var reg 1 ) Shift $end
$var reg 1 & WriteMem $end
$var reg 1 % WriteReg $end
$upscope $end
$scope module data_memory_0 $end
$var wire 32 H MemData [31:0] $end
$var wire 1 & WriteEnable $end
$var wire 32 I address [31:0] $end
$var wire 1 ! clock $end
$var wire 32 J WriteData [31:0] $end
$var integer 32 K i [31:0] $end
$upscope $end
$scope module instMem_0 $end
$var wire 1 ! clock $end
$var wire 32 L addr [31:0] $end
$var reg 32 M inst [31:0] $end
$var integer 32 N i [31:0] $end
$upscope $end
$scope module mux1_0 $end
$var wire 1 , REGRT $end
$var wire 5 O regDest [15:11] $end
$var wire 5 P regTar [20:16] $end
$var reg 5 Q ND [4:0] $end
$upscope $end
$scope module mux2_0 $end
$var wire 1 > ALUImm $end
$var wire 32 R Q2 [31:0] $end
$var wire 32 S Extended32 [31:0] $end
$var reg 32 T ALU_B [31:0] $end
$upscope $end
$scope module mux3_0 $end
$var wire 5 U SA [4:0] $end
$var wire 1 ) SHIFT $end
$var wire 32 V Q1 [31:0] $end
$var reg 32 W ALU_A [31:0] $end
$upscope $end
$scope module mux4_0 $end
$var wire 32 X ADD_0 [31:0] $end
$var wire 1 9 Jump $end
$var wire 32 Y PC [31:0] $end
$var reg 32 Z Mux4_Out [31:0] $end
$upscope $end
$scope module mux5_0 $end
$var wire 1 ; Branch $end
$var wire 32 [ Mux4_Out [31:0] $end
$var wire 32 \ Shifted_Addr [31:0] $end
$var reg 32 ] Mux5_Out [31:0] $end
$upscope $end
$scope module mux6_0 $end
$var wire 1 8 Mem2Reg $end
$var wire 32 ^ MemData [31:0] $end
$var wire 32 _ Result [31:0] $end
$var reg 32 ` Output [31:0] $end
$upscope $end
$scope module pc_0 $end
$var wire 32 a PCin [31:0] $end
$var wire 1 ! clock $end
$var wire 1 " reset $end
$var reg 32 b PCout [31:0] $end
$upscope $end
$scope module regfile_0 $end
$var wire 32 c ReadData1 [31:0] $end
$var wire 32 d ReadData2 [31:0] $end
$var wire 5 e ReadReg1 [4:0] $end
$var wire 5 f ReadReg2 [4:0] $end
$var wire 32 g WriteData [31:0] $end
$var wire 1 % WriteEnable $end
$var wire 5 h WriteReg [4:0] $end
$var wire 1 ! clock $end
$var integer 32 i i [31:0] $end
$upscope $end
$scope module shift_left2_0 $end
$var wire 32 j ShiftIn [31:0] $end
$var reg 32 k ShiftOut [31:0] $end
$upscope $end
$scope module sign_extend_0 $end
$var wire 1 * SEXT $end
$var wire 16 l inst15_0 [15:0] $end
$var reg 32 m Extend32 [31:0] $end
$upscope $end
$upscope $end
$upscope $end
$enddefinitions $end
$comment Show the parameter values. $end
$dumpall
$end
#0
$dumpvars
bx m
bx l
bx k
bx j
b11111 i
bx h
bx g
bx f
bx e
bx d
bx c
b0 b
b100 a
bx `
bx _
bx ^
b0 ]
b0xxxxxxxxxxxxxxxxxxxxxxxxxx00 \
bx [
bx Z
b0 Y
bx X
bx W
bx V
bx U
bx T
bx S
bx R
bx Q
bx P
bx O
b1111111 N
bx M
b0 L
b10000000 K
bx J
bx I
bx H
bx G
bx F
bx E
bx D
bx C
bx B
bx A
bx @
bx ?
x>
bx =
bx <
x;
bx :
x9
x8
bx 7
bx 6
b0 5
bx 4
bx 3
bx 2
bx 1
b100 0
b0 /
bx .
bx -
x,
bx +
x*
x)
bx (
b0xxxxxxxxxxxxxxxxxxxxxxxxxx00 '
x&
x%
x$
bx #
1"
x!
$end
#40000
0!
0"
#50000
b0 4
b0 `
b0 g
b101 7
b101 H
b101 ^
1$
b0 +
b0 D
b0 I
b0 _
b0 <
b0 A
b0 T
b100 @
b100 X
b0 (
b0 k
b100 6
b100 Z
b100 [
b0 =
b0 C
b0 W
b0 :
b0 S
b0 j
b0 m
b100 1
b100 Q
b100 h
b1000 0
b1000 a
b100 5
b100 ]
b100000000000000000000 '
b100000000000000000000 \
0)
1>
1%
0&
08
0;
09
1*
1,
b10 ?
b10 B
b10 G
b0 U
b0 -
b0 J
b0 R
b0 d
b100 2
b100 f
b0 .
b0 V
b0 c
b0 3
b0 e
b0 l
b0 O
b100 P
b0 E
b1000 F
b100000000001000000000000000000 #
b100000000001000000000000000000 M
b100 /
b100 L
b100 Y
b100 b
1!
#60000
0!
#70000
b1000 4
b1000 `
b1000 g
b111 7
b111 H
b111 ^
0$
b1000 +
b1000 D
b1000 I
b1000 _
b1100 0
b1100 a
b1000 5
b1000 ]
b1000 =
b1000 C
b1000 W
b1000 6
b1000 Z
b1000 [
b100100000000000000000000 '
b100100000000000000000000 \
b1000 .
b1000 V
b1000 c
b1 3
b1 e
b100000001001000000000000000000 #
b100000001001000000000000000000 M
b1000 @
b1000 X
b1000 /
b1000 L
b1000 Y
b1000 b
1!
#80000
0!
#90000
b10100 4
b10100 `
b10100 g
b0 7
b0 H
b0 ^
b10100 +
b10100 D
b10100 I
b10100 _
b10000 0
b10000 a
b1100 5
b1100 ]
b10100 =
b10100 C
b10100 W
b1100 6
b1100 Z
b1100 [
b1000100000000000000000000 '
b1000100000000000000000000 \
b10100 .
b10100 V
b10100 c
b10 3
b10 e
b100000010001000000000000000000 #
b100000010001000000000000000000 M
b1000 -
b1000 J
b1000 R
b1000 d
b1100 @
b1100 X
b1100 /
b1100 L
b1100 Y
b1100 b
1!
#100000
0!
#110000
b0 4
b0 `
b0 g
0%
b0 ?
b0 B
b0 G
b101 7
b101 H
b101 ^
1$
b0 +
b0 D
b0 I
b0 _
b10100 0
b10100 a
b10000 5
b10000 ]
b0 =
b0 C
b0 W
b0 1
b0 Q
b0 h
b10000 6
b10000 Z
b10000 [
b0 '
b0 \
0*
0,
0>
b0 2
b0 f
b0 .
b0 V
b0 c
b0 3
b0 e
b0 P
b0 F
b0 -
b0 J
b0 R
b0 d
b0 #
b0 M
b10000 @
b10000 X
b10000 /
b10000 L
b10000 Y
b10000 b
1!
#120000
0!
#130000
b11000 0
b11000 a
b10100 5
b10100 ]
b101 4
b101 `
b101 g
b11 1
b11 Q
b11 h
b10100 6
b10100 Z
b10100 [
b11000000000000000000 '
b11000000000000000000 \
1>
1%
18
1*
1,
b10 ?
b10 B
b10 G
b11 2
b11 f
b11 P
b100011 F
b10001100000000110000000000000000 #
b10001100000000110000000000000000 M
b10100 @
b10100 X
b10100 /
b10100 L
b10100 Y
b10100 b
1!
#140000
0!
#150000
b110 4
b110 `
b110 g
b110 7
b110 H
b110 ^
0$
b100 +
b100 D
b100 I
b100 _
b100 <
b100 A
b100 T
b10000 (
b10000 k
b11100 0
b11100 a
b11000 5
b11000 ]
b100 :
b100 S
b100 j
b100 m
b100 1
b100 Q
b100 h
b11000 6
b11000 Z
b11000 [
b100000000000000010000 '
b100000000000000010000 \
b100 2
b100 f
b100 l
b100 P
b100 E
b10100 -
b10100 J
b10100 R
b10100 d
b10001100000001000000000000000100 #
b10001100000001000000000000000100 M
b101000 @
b101000 X
b11000 /
b11000 L
b11000 Y
b11000 b
1!
#160000
0!
#170000
b111 4
b111 `
b111 g
b111 7
b111 H
b111 ^
b1000 +
b1000 D
b1000 I
b1000 _
b1000 <
b1000 A
b1000 T
b100000 (
b100000 k
b100000 0
b100000 a
b11100 5
b11100 ]
b1000 :
b1000 S
b1000 j
b1000 m
b101 1
b101 Q
b101 h
b11100 6
b11100 Z
b11100 [
b101000000000000100000 '
b101000000000000100000 \
b101 2
b101 f
b1000 l
b101 P
b1000 E
b10001100000001010000000000001000 #
b10001100000001010000000000001000 M
b0 -
b0 J
b0 R
b0 d
b111100 @
b111100 X
b11100 /
b11100 L
b11100 Y
b11100 b
1!
#180000
0!
#190000
b0 4
b0 `
b0 g
b0 7
b0 H
b0 ^
b1100 +
b1100 D
b1100 I
b1100 _
b1100 <
b1100 A
b1100 T
b110000 (
b110000 k
b100100 0
b100100 a
b100000 5
b100000 ]
b1100 :
b1100 S
b1100 j
b1100 m
b110 1
b110 Q
b110 h
b100000 6
b100000 Z
b100000 [
b110000000000000110000 '
b110000000000000110000 \
b110 2
b110 f
b1100 l
b110 P
b1100 E
b0 -
b0 J
b0 R
b0 d
b10001100000001100000000000001100 #
b10001100000001100000000000001100 M
b1010000 @
b1010000 X
b100000 /
b100000 L
b100000 Y
b100000 b
1!
#200000
0!
#210000
0%
b0 ?
b0 B
b0 G
b101 7
b101 H
b101 ^
1$
b0 +
b0 D
b0 I
b0 _
b0 (
b0 k
b101000 0
b101000 a
b100100 5
b100100 ]
b0 <
b0 A
b0 T
b0 4
b0 `
b0 g
b0 :
b0 S
b0 j
b0 m
b0 1
b0 Q
b0 h
b100100 6
b100100 Z
b100100 [
b0 '
b0 \
0*
0,
0>
08
b0 2
b0 f
b0 l
b0 P
b0 E
b0 F
b0 #
b0 M
b100100 @
b100100 X
b100100 /
b100100 L
b100100 Y
b100100 b
1!
#220000
0!
#230000
b1100 4
b1100 `
b1100 g
b0 7
b0 H
b0 ^
0$
b1100 +
b1100 D
b1100 I
b1100 _
b1100 <
b1100 A
b1100 T
b110000 (
b110000 k
b101100 0
b101100 a
b101000 5
b101000 ]
b1100 :
b1100 S
b1100 j
b1100 m
b101000 6
b101000 Z
b101000 [
b110000 '
b110000 \
1>
1&
1*
1,
b10 ?
b10 B
b10 G
b1100 l
b1100 E
b101011 F
b10101100000000000000000000001100 #
b10101100000000000000000000001100 M
b1011000 @
b1011000 X
b101000 /
b101000 L
b101000 Y
b101000 b
1!
#240000
0!
#250000
b10000 4
b10000 `
b10000 g
b10000 +
b10000 D
b10000 I
b10000 _
b10000 <
b10000 A
b10000 T
b1000000 (
b1000000 k
b110000 0
b110000 a
b101100 5
b101100 ]
b10000 :
b10000 S
b10000 j
b10000 m
b1 1
b1 Q
b1 h
b101100 6
b101100 Z
b101100 [
b1000000000001000000 '
b1000000000001000000 \
b1000 -
b1000 J
b1000 R
b1000 d
b1 2
b1 f
b10000 l
b1 P
b10000 E
b10101100000000010000000000010000 #
b10101100000000010000000000010000 M
b1101100 @
b1101100 X
b101100 /
b101100 L
b101100 Y
b101100 b
1!
#260000
0!
#270000
b10100 4
b10100 `
b10100 g
b10100 +
b10100 D
b10100 I
b10100 _
b10100 <
b10100 A
b10100 T
b1010000 (
b1010000 k
b110100 0
b110100 a
b110000 5
b110000 ]
b10100 :
b10100 S
b10100 j
b10100 m
b10 1
b10 Q
b10 h
b110000 6
b110000 Z
b110000 [
b10000000000001010000 '
b10000000000001010000 \
b10100 -
b10100 J
b10100 R
b10100 d
b10 2
b10 f
b10100 l
b10 P
b10100 E
b10101100000000100000000000010100 #
b10101100000000100000000000010100 M
b10000000 @
b10000000 X
b110000 /
b110000 L
b110000 Y
b110000 b
b0 7
b0 H
b0 ^
1!
#280000
0!
#290000
b0 4
b0 `
b0 g
b0 ?
b0 B
b0 G
1$
b0 +
b0 D
b0 I
b0 _
b0 (
b0 k
b111000 0
b111000 a
b110100 5
b110100 ]
b0 <
b0 A
b0 T
b0 :
b0 S
b0 j
b0 m
b0 1
b0 Q
b0 h
b110100 6
b110100 Z
b110100 [
b0 '
b0 \
0*
0,
0>
0%
0&
b0 -
b0 J
b0 R
b0 d
b0 2
b0 f
b0 l
b0 P
b0 E
b0 F
b0 #
b0 M
b110100 @
b110100 X
b110100 /
b110100 L
b110100 Y
b110100 b
b101 7
b101 H
b101 ^
1!
#300000
0!
#310000
b0 7
b0 H
b0 ^
0$
b1100 +
b1100 D
b1100 I
b1100 _
b1100 <
b1100 A
b1100 T
b110000 (
b110000 k
b111100 0
b111100 a
b111000 5
b111000 ]
b0 4
b0 `
b0 g
b1100 :
b1100 S
b1100 j
b1100 m
b11 1
b11 Q
b11 h
b111000 6
b111000 Z
b111000 [
b11000000000000110000 '
b11000000000000110000 \
1>
1%
18
1*
1,
b10 ?
b10 B
b10 G
b101 -
b101 J
b101 R
b101 d
b11 2
b11 f
b1100 l
b11 P
b1100 E
b100011 F
b10001100000000110000000000001100 #
b10001100000000110000000000001100 M
b1101000 @
b1101000 X
b111000 /
b111000 L
b111000 Y
b111000 b
1!
#320000
0!
#330000
b1000 4
b1000 `
b1000 g
b1000 7
b1000 H
b1000 ^
b10000 +
b10000 D
b10000 I
b10000 _
b10000 <
b10000 A
b10000 T
b1000000 (
b1000000 k
b1000000 0
b1000000 a
b111100 5
b111100 ]
b10000 :
b10000 S
b10000 j
b10000 m
b100 1
b100 Q
b100 h
b111100 6
b111100 Z
b111100 [
b100000000000001000000 '
b100000000000001000000 \
b100 2
b100 f
b10000 l
b100 P
b10000 E
b10001100000001000000000000010000 #
b10001100000001000000000000010000 M
b110 -
b110 J
b110 R
b110 d
b1111100 @
b1111100 X
b111100 /
b111100 L
b111100 Y
b111100 b
1!
#340000
0!
#350000
b10100 4
b10100 `
b10100 g
b10100 7
b10100 H
b10100 ^
b10100 +
b10100 D
b10100 I
b10100 _
b10100 <
b10100 A
b10100 T
b1010000 (
b1010000 k
b1000100 0
b1000100 a
b1000000 5
b1000000 ]
b10100 :
b10100 S
b10100 j
b10100 m
b101 1
b101 Q
b101 h
b1000000 6
b1000000 Z
b1000000 [
b101000000000001010000 '
b101000000000001010000 \
b101 2
b101 f
b10100 l
b101 P
b10100 E
b111 -
b111 J
b111 R
b111 d
b10001100000001010000000000010100 #
b10001100000001010000000000010100 M
b10010000 @
b10010000 X
b1000000 /
b1000000 L
b1000000 Y
b1000000 b
1!
#360000
0!
#370000
b0 4
b0 `
b0 g
0%
b0 ?
b0 B
b0 G
b101 7
b101 H
b101 ^
1$
b0 +
b0 D
b0 I
b0 _
b0 (
b0 k
b1001000 0
b1001000 a
b1000100 5
b1000100 ]
b0 <
b0 A
b0 T
b0 :
b0 S
b0 j
b0 m
b0 1
b0 Q
b0 h
b1000100 6
b1000100 Z
b1000100 [
b0 '
b0 \
0*
0,
0>
08
b0 2
b0 f
b0 l
b0 P
b0 E
b0 F
b0 #
b0 M
b0 -
b0 J
b0 R
b0 d
b1000100 @
b1000100 X
b1000100 /
b1000100 L
b1000100 Y
b1000100 b
1!
#380000
0!
#390000
b1001100 0
b1001100 a
b1001000 5
b1001000 ]
b110 1
b110 Q
b110 h
b1001000 6
b1001000 Z
b1001000 [
b11000110000000000000000000 '
b11000110000000000000000000 \
1>
1%
1*
1,
b10 ?
b10 B
b10 G
b110 2
b110 f
b110 3
b110 e
b110 P
b1000 F
b100000110001100000000000000000 #
b100000110001100000000000000000 M
b1001000 @
b1001000 X
b1001000 /
b1001000 L
b1001000 Y
b1001000 b
1!
#400000
0!
#410000
b1101 4
b1101 `
b1101 g
b101 <
b101 A
b101 T
b0 7
b0 H
b0 ^
0$
b1101 +
b1101 D
b1101 I
b1101 _
b10100 (
b10100 k
b1010000 0
b1010000 a
b1001100 5
b1001100 ]
b1000 =
b1000 C
b1000 W
b101 :
b101 S
b101 j
b101 m
b1001100 6
b1001100 Z
b1001100 [
b100110000000000000010100 '
b100110000000000000010100 \
b1000 .
b1000 V
b1000 c
b1 3
b1 e
b101 l
b101 E
b100000001001100000000000000101 #
b100000001001100000000000000101 M
b1100000 @
b1100000 X
b1001100 /
b1001100 L
b1001100 Y
b1001100 b
1!
#420000
0!
#430000
b1101 4
b1101 `
b1101 g
b0 <
b0 A
b0 T
b0 7
b0 H
b0 ^
b1101 +
b1101 D
b1101 I
b1101 _
b0 (
b0 k
b1010100 0
b1010100 a
b1010000 5
b1010000 ]
b1101 =
b1101 C
b1101 W
b0 :
b0 S
b0 j
b0 m
b1010000 6
b1010000 Z
b1010000 [
b11000110000000000000000000 '
b11000110000000000000000000 \
b1101 .
b1101 V
b1101 c
b110 3
b110 e
b0 l
b0 E
b1101 -
b1101 J
b1101 R
b1101 d
b100000110001100000000000000000 #
b100000110001100000000000000000 M
b1010000 @
b1010000 X
b1010000 /
b1010000 L
b1010000 Y
b1010000 b
1!
#440000
0!
#450000
b0 4
b0 `
b0 g
0%
b0 ?
b0 B
b0 G
b101 7
b101 H
b101 ^
1$
b0 +
b0 D
b0 I
b0 _
b1011000 0
b1011000 a
b1010100 5
b1010100 ]
b0 =
b0 C
b0 W
b0 1
b0 Q
b0 h
b1010100 6
b1010100 Z
b1010100 [
b0 '
b0 \
0*
0,
0>
b0 -
b0 J
b0 R
b0 d
b0 2
b0 f
b0 .
b0 V
b0 c
b0 3
b0 e
b0 P
b0 F
b0 #
b0 M
b1010100 @
b1010100 X
b1010100 /
b1010100 L
b1010100 Y
b1010100 b
1!
#460000
0!
#470000
b11100 4
b11100 `
b11100 g
b0 7
b0 H
b0 ^
0$
b11100 +
b11100 D
b11100 I
b11100 _
b1100000010000000 (
b1100000010000000 k
b1011100 0
b1011100 a
b1011000 5
b1011000 ]
b10100 <
b10100 A
b10100 T
b1000 =
b1000 C
b1000 W
b11000000100000 :
b11000000100000 S
b11000000100000 j
b11000000100000 m
b110 1
b110 Q
b110 h
b1011000 6
b1011000 Z
b1011000 [
b100010001100000010000000 '
b100010001100000010000000 \
b10 ?
b10 B
b10 G
1%
b10100 -
b10100 J
b10100 R
b10100 d
b10 2
b10 f
b1000 .
b1000 V
b1000 c
b1 3
b1 e
b11000000100000 l
b110 O
b10 P
b100000 E
b1000100011000000100000 #
b1000100011000000100000 M
b1100000011011000 @
b1100000011011000 X
b1011000 /
b1011000 L
b1011000 Y
b1011000 b
1!
#480000
0!
#490000
b11100 4
b11100 `
b11100 g
b11100 +
b11100 D
b11100 I
b11100 _
b0 (
b0 k
b1100000 0
b1100000 a
b1011100 5
b1011100 ]
b0 <
b0 A
b0 T
b11100 =
b11100 C
b11100 W
b0 :
b0 S
b0 j
b0 m
b1011100 6
b1011100 Z
b1011100 [
b11000110000000000000000000 '
b11000110000000000000000000 \
1>
1*
1,
b11100 -
b11100 J
b11100 R
b11100 d
b110 2
b110 f
b11100 .
b11100 V
b11100 c
b110 3
b110 e
b0 l
b0 O
b110 P
b0 E
b1000 F
b100000110001100000000000000000 #
b100000110001100000000000000000 M
b1011100 @
b1011100 X
b1011100 /
b1011100 L
b1011100 Y
b1011100 b
1!
#500000
0!
#510000
b0 4
b0 `
b0 g
0%
b0 ?
b0 B
b0 G
b101 7
b101 H
b101 ^
1$
b0 +
b0 D
b0 I
b0 _
b1100100 0
b1100100 a
b1100000 5
b1100000 ]
b0 =
b0 C
b0 W
b0 1
b0 Q
b0 h
b1100000 6
b1100000 Z
b1100000 [
b0 '
b0 \
0*
0,
0>
b0 -
b0 J
b0 R
b0 d
b0 2
b0 f
b0 .
b0 V
b0 c
b0 3
b0 e
b0 P
b0 F
b0 #
b0 M
b1100000 @
b1100000 X
b1100000 /
b1100000 L
b1100000 Y
b1100000 b
1!
#520000
0!
#530000
b10100 4
b10100 `
b10100 g
b10100 7
b10100 H
b10100 ^
0$
b10100 +
b10100 D
b10100 I
b10100 _
b1110000010001000 (
b1110000010001000 k
b1101000 0
b1101000 a
b1100100 5
b1100100 ]
b1000 <
b1000 A
b1000 T
b11100 =
b11100 C
b11100 W
b11100000100010 :
b11100000100010 S
b11100000100010 j
b11100000100010 m
b111 1
b111 Q
b111 h
b1100100 6
b1100100 Z
b1100100 [
b11000001001110000010001000 '
b11000001001110000010001000 \
b110 ?
b110 B
b110 G
1%
b1000 -
b1000 J
b1000 R
b1000 d
b1 2
b1 f
b11100 .
b11100 V
b11100 c
b110 3
b110 e
b11100000100010 l
b111 O
b1 P
b100010 E
b110000010011100000100010 #
b110000010011100000100010 M
b1110000011101100 @
b1110000011101100 X
b1100100 /
b1100100 L
b1100100 Y
b1100100 b
1!
#540000
0!
#550000
b0 (
b0 k
b1101100 0
b1101100 a
b1101000 5
b1101000 ]
b10100 4
b10100 `
b10100 g
b0 <
b0 A
b0 T
b10100 =
b10100 C
b10100 W
b0 :
b0 S
b0 j
b0 m
b1101000 6
b1101000 Z
b1101000 [
b10100 7
b10100 H
b10100 ^
b10100 +
b10100 D
b10100 I
b10100 _
b11100111000000000000000000 '
b11100111000000000000000000 \
1>
1*
1,
b10 ?
b10 B
b10 G
b10100 -
b10100 J
b10100 R
b10100 d
b111 2
b111 f
b10100 .
b10100 V
b10100 c
b111 3
b111 e
b0 l
b0 O
b111 P
b0 E
b1000 F
b100000111001110000000000000000 #
b100000111001110000000000000000 M
b1101000 @
b1101000 X
b1101000 /
b1101000 L
b1101000 Y
b1101000 b
1!
#560000
0!
#570000
b0 4
b0 `
b0 g
0%
b0 ?
b0 B
b0 G
b101 7
b101 H
b101 ^
1$
b0 +
b0 D
b0 I
b0 _
b1110000 0
b1110000 a
b1101100 5
b1101100 ]
b0 =
b0 C
b0 W
b0 1
b0 Q
b0 h
b1101100 6
b1101100 Z
b1101100 [
b0 '
b0 \
0*
0,
0>
b0 -
b0 J
b0 R
b0 d
b0 2
b0 f
b0 .
b0 V
b0 c
b0 3
b0 e
b0 P
b0 F
b0 #
b0 M
b1101100 @
b1101100 X
b1101100 /
b1101100 L
b1101100 Y
b1101100 b
1!
#580000
0!
#590000
b1 4
b1 `
b1 g
0$
b1 +
b1 D
b1 I
b1 _
b10000000010101000 (
b10000000010101000 k
b1110100 0
b1110100 a
b1110000 5
b1110000 ]
b10100 <
b10100 A
b10100 T
b100000000101010 :
b100000000101010 S
b100000000101010 j
b100000000101010 m
b1000 1
b1000 Q
b1000 h
b1110000 6
b1110000 Z
b1110000 [
b111010000000010101000 '
b111010000000010101000 \
b111 ?
b111 B
b111 G
1%
b10100 -
b10100 J
b10100 R
b10100 d
b111 2
b111 f
b100000000101010 l
b1000 O
b111 P
b101010 E
b1110100000000101010 #
b1110100000000101010 M
b10000000100011000 @
b10000000100011000 X
b1110000 /
b1110000 L
b1110000 Y
b1110000 b
1!
#600000
0!
#610000
b0 (
b0 k
b1111000 0
b1111000 a
b1110100 5
b1110100 ]
b1 4
b1 `
b1 g
b0 <
b0 A
b0 T
b1 =
b1 C
b1 W
b0 :
b0 S
b0 j
b0 m
b1110100 6
b1110100 Z
b1110100 [
b101 7
b101 H
b101 ^
b1 +
b1 D
b1 I
b1 _
b100001000000000000000000000 '
b100001000000000000000000000 \
1>
1*
1,
b10 ?
b10 B
b10 G
b1 -
b1 J
b1 R
b1 d
b1000 2
b1000 f
b1 .
b1 V
b1 c
b1000 3
b1000 e
b0 l
b0 O
b1000 P
b0 E
b1000 F
b100001000010000000000000000000 #
b100001000010000000000000000000 M
b1110100 @
b1110100 X
b1110100 /
b1110100 L
b1110100 Y
b1110100 b
1!
#620000
0!
#630000
b101 <
b101 A
b101 T
b10100 (
b10100 k
b1111100 0
b1111100 a
b1111000 5
b1111000 ]
b0 4
b0 `
b0 g
b10100 =
b10100 C
b10100 W
b101 :
b101 S
b101 j
b101 m
b1001 1
b1001 Q
b1001 h
b1111000 6
b1111000 Z
b1111000 [
1$
b0 +
b0 D
b0 I
b0 _
b11101001000000000000010100 '
b11101001000000000000010100 \
b111 ?
b111 B
b111 G
b0 -
b0 J
b0 R
b0 d
b1001 2
b1001 f
b10100 .
b10100 V
b10100 c
b111 3
b111 e
b101 l
b1001 P
b101 E
b1010 F
b101000111010010000000000000101 #
b101000111010010000000000000101 M
b10001100 @
b10001100 X
b1111000 /
b1111000 L
b1111000 Y
b1111000 b
1!
#640000
0!
#650000
b0 <
b0 A
b0 T
b0 (
b0 k
b10000000 0
b10000000 a
b1111100 5
b1111100 ]
b0 4
b0 `
b0 g
b0 =
b0 C
b0 W
b0 :
b0 S
b0 j
b0 m
b1111100 6
b1111100 Z
b1111100 [
b101 7
b101 H
b101 ^
1$
b0 +
b0 D
b0 I
b0 _
b100101001000000000000000000 '
b100101001000000000000000000 \
b10 ?
b10 B
b10 G
b0 .
b0 V
b0 c
b1001 3
b1001 e
b0 l
b0 E
b1000 F
b100001001010010000000000000000 #
b100001001010010000000000000000 M
b1111100 @
b1111100 X
b1111100 /
b1111100 L
b1111100 Y
b1111100 b
1!
#660000
0!
#670000
b1 4
b1 `
b1 g
0$
b1 +
b1 D
b1 I
b1 _
b11001 <
b11001 A
b11001 T
b1100100 (
b1100100 k
b10000100 0
b10000100 a
b10000000 5
b10000000 ]
b10100 =
b10100 C
b10100 W
b11001 :
b11001 S
b11001 j
b11001 m
b10000000 6
b10000000 Z
b10000000 [
b11101001000000000001100100 '
b11101001000000000001100100 \
b111 ?
b111 B
b111 G
b10100 .
b10100 V
b10100 c
b111 3
b111 e
b11001 l
b11001 E
b1010 F
b101000111010010000000000011001 #
b101000111010010000000000011001 M
b11100100 @
b11100100 X
b10000000 /
b10000000 L
b10000000 Y
b10000000 b
1!
#680000
0!
#690000
b0 <
b0 A
b0 T
b0 (
b0 k
b10001000 0
b10001000 a
b10000100 5
b10000100 ]
b1 4
b1 `
b1 g
b1 =
b1 C
b1 W
b0 :
b0 S
b0 j
b0 m
b10000100 6
b10000100 Z
b10000100 [
b101 7
b101 H
b101 ^
b1 +
b1 D
b1 I
b1 _
b100101001000000000000000000 '
b100101001000000000000000000 \
b10 ?
b10 B
b10 G
b1 .
b1 V
b1 c
b1001 3
b1001 e
b0 l
b0 E
b1000 F
b100001001010010000000000000000 #
b100001001010010000000000000000 M
b1 -
b1 J
b1 R
b1 d
b10000100 @
b10000100 X
b10000100 /
b10000100 L
b10000100 Y
b10000100 b
1!
#700000
0!
#710000
b0 4
b0 `
b0 g
0%
b0 ?
b0 B
b0 G
1$
b0 +
b0 D
b0 I
b0 _
b10001100 0
b10001100 a
b10001000 5
b10001000 ]
b0 =
b0 C
b0 W
b0 1
b0 Q
b0 h
b10001000 6
b10001000 Z
b10001000 [
b0 '
b0 \
0*
0,
0>
b0 -
b0 J
b0 R
b0 d
b0 2
b0 f
b0 .
b0 V
b0 c
b0 3
b0 e
b0 P
b0 F
b0 #
b0 M
b10001000 @
b10001000 X
b10001000 /
b10001000 L
b10001000 Y
b10001000 b
1!
#720000
0!
#730000
b10000010010000 (
b10000010010000 k
b10010000 0
b10010000 a
b10001100 5
b10001100 ]
b1000 =
b1000 C
b1000 W
b100000100100 :
b100000100100 S
b100000100100 j
b100000100100 m
b1 1
b1 Q
b1 h
b10001100 6
b10001100 Z
b10001100 [
b10000000000010000010010000 '
b10000000000010000010010000 \
1%
b1000 .
b1000 V
b1000 c
b100 3
b100 e
b100000100100 l
b1 O
b100100 E
b100000000000100000100100 #
b100000000000100000100100 M
b10000100011100 @
b10000100011100 X
b10001100 /
b10001100 L
b10001100 Y
b10001100 b
1!
#740000
0!
#750000
b0 (
b0 k
b10010100 0
b10010100 a
b10010000 5
b10010000 ]
b0 4
b0 `
b0 g
b0 <
b0 A
b0 T
b0 =
b0 C
b0 W
b0 :
b0 S
b0 j
b0 m
b10010000 6
b10010000 Z
b10010000 [
b101 7
b101 H
b101 ^
1$
b0 +
b0 D
b0 I
b0 _
b100001000000000000000000 '
b100001000000000000000000 \
1>
1*
1,
b10 ?
b10 B
b10 G
b1 2
b1 f
b0 .
b0 V
b0 c
b1 3
b1 e
b0 l
b0 O
b1 P
b0 E
b1000 F
b100000001000010000000000000000 #
b100000001000010000000000000000 M
b10010000 @
b10010000 X
b10010000 /
b10010000 L
b10010000 Y
b10010000 b
1!
#760000
0!
